<?xml version="1.0" encoding="UTF-8"?>
<CustomTab xmlns="http://soap.sforce.com/2006/04/metadata">
    <customObject>true</customObject>
    <description>2016 Release Q2 - DRAFT US-2465 (Rally ID: US2274) 

The function of this object is to display the associated referring Urologist and the number of Rxs for a written by a Primary Care Physician within a certain time frame. This a junction object with M:M relationship to Contact object.</description>
    <mobileReady>false</mobileReady>
    <motif>Custom25: Alarm clock</motif>
</CustomTab>
