<?xml version="1.0" encoding="UTF-8"?>
<CustomTab xmlns="http://soap.sforce.com/2006/04/metadata">
    <description>Link to Tableau report via VF. Created to support US2637 and  US2745.</description>
    <label>Sales Performance</label>
    <mobileReady>true</mobileReady>
    <motif>Custom48: Trophy</motif>
    <page>TableauSalesPerformanceReport</page>
</CustomTab>
