<?xml version="1.0" encoding="UTF-8"?>
<CustomTab xmlns="http://soap.sforce.com/2006/04/metadata">
    <label>Sample Product Request Form</label>
    <mobileReady>false</mobileReady>
    <motif>Custom7: Square</motif>
    <page>SampleRequestForm</page>
</CustomTab>
