<?xml version="1.0" encoding="UTF-8"?>
<CustomTab xmlns="http://soap.sforce.com/2006/04/metadata">
    <customObject>true</customObject>
    <description>US 2641 DRAFT US-3855</description>
    <mobileReady>false</mobileReady>
    <motif>Custom23: Mail</motif>
</CustomTab>
