<?xml version="1.0" encoding="UTF-8"?>
<CustomTab xmlns="http://soap.sforce.com/2006/04/metadata">
    <description>Link to Tableau report via VF. Created to support US2637.</description>
    <label>Territory Analysis</label>
    <mobileReady>false</mobileReady>
    <motif>Custom42: Treasure chest</motif>
    <page>TableauTerritoryPerformanceReport</page>
</CustomTab>
